Introduction to Statistics - 23 Linear Regression
…
The \((1-\alpha)100\%\) prediction interval (PI) for \(y_0(x_0)\) is \(\small \boxed{\hat{y_0} \pm t_{\alpha/2, n-2} \hat{\sigma}\sqrt{1+ \frac{1}{n} + \frac{(x_0 - \overline{x})^2}{S_{xx}}}}\)

What is the difference between CI for \(E(y\mid x_0)\) and PI for \(y_0(x_0)\)?

The PI is wider as it includes the uncertainty about \(b_0\), \(b_1\) as well as \(y_0\) due to error, \(\epsilon\).

23.7 R Lab

 mpg Data 

library(ggplot2)  ## use data mpg in ggplot2 package
mpg

# A tibble: 234 × 11
   manufacturer model      displ  year   cyl trans drv     cty   hwy fl    class
   <chr>        <chr>      <dbl> <int> <int> <chr> <chr> <int> <int> <chr> <chr>
 1 audi         a4           1.8  1999     4 auto… f        18    29 p     comp…
 2 audi         a4           1.8  1999     4 manu… f        21    29 p     comp…
 3 audi         a4           2    2008     4 manu… f        20    31 p     comp…
 4 audi         a4           2    2008     4 auto… f        21    30 p     comp…
 5 audi         a4           2.8  1999     6 auto… f        16    26 p     comp…
 6 audi         a4           2.8  1999     6 manu… f        18    26 p     comp…
 7 audi         a4           3.1  2008     6 auto… f        18    27 p     comp…
 8 audi         a4 quattro   1.8  1999     4 manu… 4        18    26 p     comp…
 9 audi         a4 quattro   1.8  1999     4 auto… 4        16    25 p     comp…
10 audi         a4 quattro   2    2008     4 manu… 4        20    28 p     comp…
# ℹ 224 more rows
…
